Vignette: Predictive/ML modeling of donations in EA Survey data with Tidymodels and workflow
…
Next we sample from this data and remove labels, to make it process quicker and easier

Code

df <- df %>%
  labelled::remove_attributes("label") %>%  # Labels don't work with tidymodels :/, sadly
  ungroup() %>%
dplyr::sample_n(2000)

Code

df

# A tibble: 2,000 × 48
   donation_usd don_av2_yr l_don_usd l_don_av_2yr don_share_inc_imp_bc5k
          <dbl>      <dbl>     <dbl>        <dbl>                  <dbl>
 1        400       3200        5.99         8.07                0.04   
 2        916        824.       6.82         6.72                0.0159 
 3       2485.      2604.       7.82         7.87                0.0808 
 4        118.       266.       4.78         5.59                0.00833
 5         36.7       55.1      3.63         4.03                0.00734
 6    1400000     700000       14.2         13.5                 1      
 7       1300.      1300.       7.17         7.17                0.0500 
 8         50         25        3.93         3.26                0.01   
 9        500        500        6.22         6.22                0.01   
10          0          0        0            0                   0      
# … with 1,990 more rows, and 43 more variables: donation_plan_usd <dbl>,
#   d_don_1k <fct>, d_don_10pct <dbl>, ln_years_involved <dbl>, year_f <fct>,
#   ln_age <dbl>, not_male_cat <fct>, student_cat <fct>, race_cat <fct>,
#   where_live_cat <fct>, city_cat <fct>, ln_income_c_imp_bc5k <dbl>,
#   d_pt_employment <dbl>, d_not_employed <dbl>, d_top6_uni <fct>,
#   d_gwwc_ever_0 <fct>, d_career_etg <dbl>, ln_years_involved_post_med <dbl>,
#   ln_age_if_older <dbl>, ln_income_c_imp_if_richer <dbl>, income_c <dbl>, …
…
