Vignette: Predictive/ML modeling of donations in EA Survey data with Tidymodels and workflow
…
Next we sample from this data and remove labels, to make it process quicker and easier

Code

df <- df %>%
  labelled::remove_attributes("label") %>%  # Labels don't work with tidymodels :/, sadly
  ungroup() %>%
dplyr::sample_n(2000)

Code

df

# A tibble: 2,000 × 48
   donation_usd don_av2_yr l_don_usd l_don_av_2yr don_share_inc_imp_bc5k
          <dbl>      <dbl>     <dbl>        <dbl>                  <dbl>
 1     130000     90000        11.8         11.4                0.382   
 2          6.5       9.75      2.01         2.37               0.000454
 3          0       275.        0            5.62               0       
 4        220.      661.        5.40         6.49               0.0167  
 5        200       350         5.30         5.86               0.0286  
 6       1000      1000         6.91         6.91               0.0101  
 7          0         0         0            0                  0       
 8        200       850         5.30         6.75               0.0118  
 9        100       550         4.62         6.31               0.00278 
10        200       200         5.30         5.30               0.00541 
# … with 1,990 more rows, and 43 more variables: donation_plan_usd <dbl>,
#   d_don_1k <fct>, d_don_10pct <dbl>, ln_years_involved <dbl>, year_f <fct>,
#   ln_age <dbl>, not_male_cat <fct>, student_cat <fct>, race_cat <fct>,
#   where_live_cat <fct>, city_cat <fct>, ln_income_c_imp_bc5k <dbl>,
#   d_pt_employment <dbl>, d_not_employed <dbl>, d_top6_uni <fct>,
#   d_gwwc_ever_0 <fct>, d_career_etg <dbl>, ln_years_involved_post_med <dbl>,
#   ln_age_if_older <dbl>, ln_income_c_imp_if_richer <dbl>, income_c <dbl>, …
…
d_don_1k_best_params <- best_wflow_preds_vi(d_don_1k_results,
  outcome_var = "d_don_1k",
  classification = TRUE, 
  metric = "roc_auc")

The ‘vi’, a measure of ‘variable importance’, may be an object of particular interest:

Code

d_don_1k_best_params$vi

[[1]]
# A tibble: 47 × 2
   Variable                   Importance
   <chr>                           <dbl>
 1 ln_income_c_imp_bc5k           187.  
 2 ln_age                          39.8 
 3 ln_years_involved               34.0 
 4 student_cat_Student             24.6 
 5 ln_years_involved_post_med      17.7 
 6 year_f_X2020                     4.79
 7 d_career_etg                     4.51
 8 not_male_cat_Not.male            4.34
 9 d_not_employed                   4.30
10 race_cat_Not.just.white          4.22
# … with 37 more rows

[[2]]
# A tibble: 47 × 3
   Variable                                       Importance Sign 
   <chr>                                               <dbl> <chr>
 1 first_hear_ea_lump_unknown                          4.20  POS  
 2 student_cat_Student..No.response                    3.74  POS  
 3 ln_income_c_imp_bc5k                                2.58  POS  
 4 ln_years_involved                                   1.22  POS  
 5 first_hear_ea_lump_GWWC..or.OftW.or.SHIC.           0.787 POS  
 6 first_hear_ea_lump_Other..listed.                   0.740 POS  
 7 first_hear_ea_lump_REG.EAF.FRI.the.swiss.group      0.639 NEG  
 8 first_hear_ea_lump_Ted.Talk                         0.556 POS  
 9 first_hear_ea_lump_slate.star.codex                 0.421 POS  
10 ln_age                                              0.412 POS  
# … with 37 more rows
…
