RP: Methods - 21 Ch 2. Small/Large Worlds
…
Next we build the tibble plausibility/updating tibble.

Going through the coding steps for my own benefit, First we expand the tibble to consider each of 50 possible p_water values after each trial (toss).

Code
sequence_length <- 50

(
plaus_globe_updates <-
d %>%
  expand(nesting(n_trials, toss, n_success),
         p_water = seq(from = 0, to = 1, length.out = sequence_length))
)

# A tibble: 450 × 4
   n_trials toss  n_success p_water
      <int> <chr>     <int>   <dbl>
 1        1 w             1  0     
 2        1 w             1  0.0204
 3        1 w             1  0.0408
 4        1 w             1  0.0612
 5        1 w             1  0.0816
 6        1 w             1  0.102 
 7        1 w             1  0.122 
 8        1 w             1  0.143 
 9        1 w             1  0.163 
10        1 w             1  0.184 
# … with 440 more rows
…
