RP: Methods - 22 Ch 3. Sampling the Imaginary (posterior)
…
(
  d <-
  tibble(p_grid = seq(from = 0, to = 1, length.out = n),
         # note we're still using a flat uniform prior
         prior  = 1) %>% 
  mutate(likelihood = dbinom(n_success, size = n_trials, prob = p_grid)) %>%
  mutate(posterior = (likelihood * prior) / sum(likelihood * prior))
)

# A tibble: 1,001 × 4
   p_grid prior likelihood posterior
    <dbl> <dbl>      <dbl>     <dbl>
 1  0         1   0         0       
 2  0.001     1   8.37e-17  8.37e-19
 3  0.002     1   5.34e-15  5.34e-17
 4  0.003     1   6.07e-14  6.07e-16
 5  0.004     1   3.40e-13  3.40e-15
 6  0.005     1   1.29e-12  1.29e-14
 7  0.006     1   3.85e-12  3.85e-14
 8  0.007     1   9.68e-12  9.68e-14
 9  0.008     1   2.15e-11  2.15e-13
10  0.009     1   4.34e-11  4.34e-13
# … with 991 more rows
…
The .width column in the output indexed which line presented which interval. The value in the y column remained constant across rows. That’s because that column listed the measure of central tendency, the median in this case.

3.2.3. Point estimates

We’ve been calling point estimates measures of central tendency. If we arrange() our d tibble in descending order by posterior, we’ll see the corresponding p_grid value for its MAP estimate.

Code
d %>%
  arrange(desc(posterior))

# A tibble: 1,001 × 4
   p_grid prior likelihood posterior
    <dbl> <dbl>      <dbl>     <dbl>
 1  1         1      1         1    
 2  0.999     1      0.997     0.997
 3  0.998     1      0.994     0.994
 4  0.997     1      0.991     0.991
 5  0.996     1      0.988     0.988
 6  0.995     1      0.985     0.985
 7  0.994     1      0.982     0.982
 8  0.993     1      0.979     0.979
 9  0.992     1      0.976     0.976
10  0.991     1      0.973     0.973
# … with 991 more rows
…
#mapping the above function over every element of the 'grid of possible choices' (which need to be in that data set of a particular format)

(
  l <-
  d %>% 
  select(p_grid) %>% 
  rename(decision = p_grid) %>% #extract probability grid, label it as 'decision' to consider all possible decisions
  mutate(weighted_average_loss = purrr::map(decision, make_loss)) %>%  
    #wow, a map *inside* a mutate; not sure I understand the syntax of that. I guess `decision` on the previous line knows to refer to that particular column of the tibble we are 'currently working with', and creates a new column mapping each of these into the function `make_loss`
    #for all 
  unnest() %>% #'purr' gives us a weird list, even within mutates? so you need to expand these lists I guess
    arrange(weighted_average_loss)
)

# A tibble: 1,001 × 2
   decision weighted_average_loss
      <dbl>                 <dbl>
 1    0.841                  31.9
 2    0.842                  31.9
 3    0.84                   31.9
 4    0.843                  31.9
 5    0.839                  31.9
 6    0.844                  31.9
 7    0.838                  31.9
 8    0.845                  31.9
 9    0.837                  31.9
10    0.846                  31.9
# … with 991 more rows
…
