RP: Methods - 2 Coding, data
…
# A tibble: 5 × 3
  cut           n   pct
  <ord>     <int> <dbl>
1 Fair       1610  2.98
2 Good       4906  9.10
3 Very Good 12082 22.4 
4 Premium   13791 25.6 
5 Ideal     21551 40.0 

count, count_data, describe_data
diamonds %>%
 group_by(color) %>%
 count_data(cut)

# A tibble: 35 × 4
# Groups:   color [7]
   color cut           n   pct
   <ord> <ord>     <int> <dbl>
 1 D     Fair        163  2.41
 2 D     Good        662  9.77
 3 D     Very Good  1513 22.3 
 4 D     Premium    1603 23.7 
 5 D     Ideal      2834 41.8 
 6 E     Fair        224  2.29
 7 E     Good        933  9.52
 8 E     Very Good  2400 24.5 
 9 E     Premium    2337 23.9 
10 E     Ideal      3903 39.8 
# … with 25 more rows
…
