Rethink Priorities: Methods - 15 Monte-Carlo ‘Fermi Estimation’ Approaches
…
Display this ‘matrix’ of 1000 outcomes (or a peek at it)

Code
urns

# A tibble: 1,000 × 4
   share_green  runif majority draw 
         <dbl>  <dbl> <chr>    <chr>
 1      0.978  0.314  green    green
 2      0.820  0.0878 green    green
 3      0.982  0.747  green    green
 4      0.188  0.228  red      red  
 5      0.706  0.848  green    red  
 6      0.332  0.245  red      green
 7      0.0976 0.302  red      red  
 8      0.345  0.449  red      red  
 9      0.464  0.0951 red      green
10      0.879  0.212  green    green
# … with 990 more rows
…
