Rethink Priorities: Methods - 16 Other suggested sections
…
# Convert to tibble for better printing. Convert factors to strings
sleepstudy <- sleepstudy %>% 
  as_tibble() %>% 
  mutate(Subject = as.character(Subject))

# Add two fake participants
df_sleep <- bind_rows(
  sleepstudy,
  tibble(Reaction = c(286, 288), Days = 0:1, Subject = "374"),
  tibble(Reaction = 245, Days = 0, Subject = "373"))

df_sleep

# A tibble: 183 × 3
   Reaction  Days Subject
      <dbl> <dbl> <chr>  
 1     250.     0 308    
 2     259.     1 308    
 3     251.     2 308    
 4     321.     3 308    
 5     357.     4 308    
 6     415.     5 308    
 7     382.     6 308    
 8     290.     7 308    
 9     431.     8 308    
10     466.     9 308    
# … with 173 more rows
…
