Vignette: Predictive/ML modeling of donations in EA Survey data with Tidymodels and workflow
…
Next we sample from this data and remove labels, to make it process quicker and easier

Code

df <- df %>%
  labelled::remove_attributes("label") %>%  # Labels don't work with tidymodels :/, sadly
  ungroup() %>%
dplyr::sample_n(2000)

Code

df

# A tibble: 2,000 × 48
   donation_usd don_av…¹ l_don…² l_don…³ don_s…⁴ donat…⁵ d_don…⁶ d_don…⁷ ln_ye…⁸
          <dbl>    <dbl>   <dbl>   <dbl>   <dbl>   <dbl> <fct>     <dbl>   <dbl>
 1         274.     479.    5.62    6.17 0.0160     684. FALSE         0  -0.693
 2         200      200     5.30    5.30 0.04       200  FALSE         1   0.405
 3         500      500     6.22    6.22 0.1        500  FALSE         1   1.25 
 4           0     1500     0       7.31 0         3000  FALSE         0   1.70 
 5         100      100     4.62    4.62 0.00370    100  FALSE         0   1.25 
 6       20000    20000     9.90    9.90 0.1      20000  TRUE          1  -0.693
 7        2260     2260     7.72    7.72 0.0205    2260  TRUE          0   0.405
 8         240      240     5.48    5.48 0.0196     240  FALSE         0   0.916
 9        5141.    4884.    8.55    8.49 0.108     4627. TRUE          1   2.01 
10           0        0     0       0    0            0  FALSE         0   1.50 
# … with 1,990 more rows, 39 more variables: year_f <fct>, ln_age <dbl>,
#   not_male_cat <fct>, student_cat <fct>, race_cat <fct>,
#   where_live_cat <fct>, city_cat <fct>, ln_income_c_imp_bc5k <dbl>,
#   d_pt_employment <dbl>, d_not_employed <dbl>, d_top6_uni <fct>,
#   d_gwwc_ever_0 <fct>, d_career_etg <dbl>, ln_years_involved_post_med <dbl>,
#   ln_age_if_older <dbl>, ln_income_c_imp_if_richer <dbl>, income_c <dbl>,
#   income_c_imp <dbl>, income_c_imp_bc5k <dbl>, income_c_imp_diqr <dbl>, …
# ℹ Use `print(n = ...)` to see more rows, and `colnames()` to see all variable names
…
