Vignette: Predictive/ML modeling of donations in EA Survey data with Tidymodels and workflow
…
Next we sample from this data and remove labels, to make it process quicker and easier

Code

df <- df %>%
  labelled::remove_attributes("label") %>%  # Labels don't work with tidymodels :/, sadly
  ungroup() %>%
dplyr::sample_n(2000)

Code

df

# A tibble: 2,000 × 48
   donation_usd don_av2_yr l_don_usd l_don_av_2yr don_share_inc_imp_bc5k
          <dbl>      <dbl>     <dbl>        <dbl>                  <dbl>
 1      95119      97120       11.5         11.5                0.283   
 2      13000      11000        9.47         9.31               0.144   
 3       2000       2000        7.60         7.60               0.0364  
 4         22.0       22.0      3.14         3.14               0.000556
 5        190.       565.       5.25         6.34               0.0179  
 6          0        500        0            6.22               0       
 7          0          0        0            0                  0       
 8          0        300        0            5.71               0       
 9       1320        660        7.19         6.49               0.0400  
10        161.      2152.       5.09         7.67               0.00273 
# … with 1,990 more rows, and 43 more variables: donation_plan_usd <dbl>,
#   d_don_1k <fct>, d_don_10pct <dbl>, ln_years_involved <dbl>, year_f <fct>,
#   ln_age <dbl>, not_male_cat <fct>, student_cat <fct>, race_cat <fct>,
#   where_live_cat <fct>, city_cat <fct>, ln_income_c_imp_bc5k <dbl>,
#   d_pt_employment <dbl>, d_not_employed <dbl>, d_top6_uni <fct>,
#   d_gwwc_ever_0 <fct>, d_career_etg <dbl>, ln_years_involved_post_med <dbl>,
#   ln_age_if_older <dbl>, ln_income_c_imp_if_richer <dbl>, income_c <dbl>, …
…
d_don_1k_best_params <- best_wflow_preds_vi(d_don_1k_results,
  outcome_var = "d_don_1k",
  classification = TRUE, 
  metric = "roc_auc")

The ‘vi’, a measure of ‘variable importance’, may be an object of particular interest:

Code

d_don_1k_best_params$vi

[[1]]
# A tibble: 47 × 2
   Variable                   Importance
   <chr>                           <dbl>
 1 ln_income_c_imp_bc5k           174.  
 2 ln_age                          65.6 
 3 ln_years_involved               36.3 
 4 student_cat_Student             22.9 
 5 ln_years_involved_post_med      17.5 
 6 d_career_etg                     8.21
 7 not_male_cat_Not.male            6.65
 8 d_not_employed                   6.57
 9 city_cat_Other                   6.18
10 race_cat_Not.just.white          5.84
# … with 37 more rows

[[2]]
# A tibble: 47 × 3
   Variable                            Importance Sign 
   <chr>                                    <dbl> <chr>
 1 student_cat_Student..No.response         4.75  NEG  
 2 first_hear_ea_lump_unknown               2.74  NEG  
 3 ln_income_c_imp_bc5k                     2.71  POS  
 4 first_hear_ea_lump_Other..listed.        2.53  POS  
 5 ln_years_involved                        1.32  POS  
 6 race_cat_Race..No.response               0.892 NEG  
 7 first_hear_ea_lump_givewell              0.683 POS  
 8 ln_age                                   0.637 POS  
 9 where_live_cat_Country..No.response      0.604 POS  
10 first_hear_ea_lump_Ted.Talk              0.467 POS  
# … with 37 more rows
…
